MyLabJournal - Data Acquisition
…
# Extract relevant data from the response
forecast_data <- respTable$hourly

# Create a tibble
weather_tbl <- tibble(
  time = forecast_data$time,
  temperature_2m = forecast_data$temperature_2m
)

# Print the tibble
print(weather_tbl)

#> # A tibble: 168 × 2
#>    time             temperature_2m
#>    <chr>                     <dbl>
#>  1 2024-05-18T00:00           16.4
#>  2 2024-05-18T01:00           15.5
#>  3 2024-05-18T02:00           14.4
#>  4 2024-05-18T03:00           13.6
#>  5 2024-05-18T04:00           12.8
#>  6 2024-05-18T05:00           12.1
#>  7 2024-05-18T06:00           11.9
#>  8 2024-05-18T07:00           12.8
#>  9 2024-05-18T08:00           14.7
#> 10 2024-05-18T09:00           17  
#> # ℹ 158 more rows
…
