MyLabJournal - Data Wrangling
…
# Filter US companies and count patents
# US companies are being filtered by US specific keywords
patent_counts <- merged_tbl %>%
  filter(grepl("Inc\\.|LLC|Corporation|Corporated|Company|Ltd\\.|Incorporated", organization, ignore.case = TRUE)) %>%
  group_by(organization) %>%
  summarise(patent_count = n()) %>%
  arrange(desc(patent_count))

# Print the result
print(patent_counts)

#> # A tibble: 28,689 × 2
#>    organization                                patent_count
#>    <chr>                                              <int>
#>  1 International Business Machines Corporation         7547
#>  2 Samsung Electronics Co., Ltd.                       5835
#>  3 Sony Corporation                                    3326
#>  4 Microsoft Corporation                               3165
#>  5 Google Inc.                                         2668
#>  6 QUALCOMM Incorporated                               2597
#>  7 LG Electronics Inc.                                 2459
#>  8 Panasonic Corporation                               2218
#>  9 Apple Inc.                                          2201
#> 10 General Electric Company                            1873
#> # ℹ 28,679 more rows
…
